..............
----------------------------------------------------------------------
Ran 14 tests in 0.214s

OK
Name             Stmts   Miss Branch BrPart  Cover   Missing
------------------------------------------------------------
Collatz.py          39      0     14      0   100%
TestCollatz.py      63      0      0      0   100%
------------------------------------------------------------
TOTAL              102      0     14      0   100%