327042 243997 407
945804 984209 458
858539 591213 525
617621 984216 525
973880 913216 507
641224 512635 509
505720 188839 449
459857 737370 509
204338 944655 525
438264 866986 525
974464 987023 427
109949 877169 525
455726 959041 525
590585 897439 525
228826 708608 509
394369 975833 525
559447 69345 470
192106 403963 443
114949 333270 443
201617 799265 509
851406 145448 525
745769 100096 509
521769 317060 470
765688 189468 509
579575 675499 509
922944 25514 525
958273 530236 525
380936 231644 441
507927 761505 509
263361 827671 509
865567 265551 525
317269 821498 509
802788 755485 468
804103 698875 504
432049 958373 525
114052 171784 383
924126 240579 525
687347 142181 509
757950 17331 509
43617 618780 470
713330 140444 509
695386 703857 411
728534 174420 509
391275 939327 525
809169 116187 509
914471 654358 525
388210 645972 509
990019 880183 507
348547 539051 470
323766 271254 389
432719 425074 374
603304 59207 470
292961 126731 443
795324 394779 509
252520 946619 525
89884 61371 351
434979 559224 470
352469 746154 509
645323 560115 509
515630 401291 470
467931 394430 449
399990 455155 449
887092 14179 525
720210 118160 509
654305 189395 509
90469 173890 383
984588 695565 525
994698 542935 525
860517 794187 525
917704 940735 507
536102 127690 470
479954 450438 444
638997 188832 509
139082 163452 383
697432 68035 509
587892 685911 509
309886 608898 470
203531 311378 443
964997 623400 525
69678 120809 354
209989 839367 525
273302 440891 449
737533 565540 509
572811 741518 509
52819 901342 525
841512 660787 525
331141 57565 443
701085 587199 509
353368 982329 525
920643 136826 525
769928 559524 509
228576 410221 449
196855 665084 509
192476 687630 509
955350 286636 525
264901 338549 407
234320 786173 509
56700 736564 509
795666 437778 509
553954 168114 470
900973 157574 525
843282 649037 525
309990 887816 525
514381 692645 509
414686 626803 509
995600 790453 525
540017 59520 470
561902 957110 525
566282 613626 434
276011 265381 407
463812 653337 509
400348 963228 525
211231 300191 443
812823 712257 468
10634 864418 525
317209 153789 443
231540 703075 509
951572 910751 507
865159 798185 525
510403 337323 449
384722 544423 470
40869 118096 354
187620 677088 509
61815 62686 317
995431 657201 525
965959 530787 525
873932 283182 525
239853 731633 509
146167 376632 443
251888 381891 441
545467 388526 470
576668 496104 470
940243 391849 525
936757 648188 525
3679 872767 525
294866 559493 470
869713 932176 476
916189 565948 525
191477 19220 383
821224 159497 509
913449 326539 525
129975 927377 525
111494 282619 443
946900 747791 525
572603 295501 470
824067 953879 525
692032 831378 504
383131 272892 441
201337 735520 509
686304 855274 525
520504 994359 525
379841 462730 449
902400 832498 525
623302 756573 509
742474 226624 509
957042 589659 525
447524 775337 509
181856 947828 525
104869 280661 443
554680 513267 452
862402 923669 476
418046 205752 449
480670 46557 449
495147 160434 449
846273 373132 525
114316 7815 354
52605 351536 443
740889 260700 509
515392 385584 470
952981 464787 525
813236 648915 504
380899 49550 443
174651 923414 525
912847 717308 525
615825 144912 470
850440 201624 525
