...........
----------------------------------------------------------------------
Ran 11 tests in 2.459s

OK
Name             Stmts   Miss Branch BrPart  Cover   Missing
------------------------------------------------------------
Collatz.py          37      1     20      2    95%   42, 41->42, 55->69
TestCollatz.py      51      0      0      0   100%
------------------------------------------------------------
TOTAL               88      1     20      2    97%
